Asplund et al 2009	REV.2.6.4
Zeta Scaling, Fe scale
Base Element: Fe
Lower Break: Chi0 = -1.0
Upper Break: Chi1 = +0.5
Z	El	 AGSS09	Xi(Fe)
1	H	  0.000	Const
2	He	 -1.070	Const
3	Li	 -10.95	0.000
4	Be	 -10.62	0.000
5	B	 -9.300	0.000
6	C	 -3.570	0.000
7	N	 -4.170	0.000
8	O	 -3.310	0.000
9	F	 -7.440	0.000
10	Ne	 -4.070	0.000
11	Na	 -5.760	0.000
12	Mg	 -4.400	0.000
13	Al	 -5.550	0.000
14	Si	 -4.490	0.000
15	P	 -6.590	0.000
16	S	 -4.880	0.000
17	Cl	 -6.500	0.000
18	Ar	 -5.600	0.000
19	K	 -6.970	0.000
20	Ca	 -5.660	0.000
21	Sc	 -8.850	0.000
22	Ti	 -7.050	0.000
23	V	 -8.070	0.000
24	Cr	 -6.360	0.000
25	Mn	 -6.570	0.000
26	Fe	 -4.500	0.000
27	Co	 -7.010	0.000
28	Ni	 -5.780	0.000
29	Cu	 -7.810	0.000
30	Zn	 -7.440	0.000
