{
"H ":   0.0000,
"He":  -1.0758,
"Li":  -11.480,
"B ":  -11.150,
"Be":  -9.8300,
"C ":  -4.1000,
"N ":  -4.7000,
"O ":  -3.8400,
"F ":  -7.9700,
"Ne":  -4.6000,
"Na":  -6.2900,
"Mg":  -4.9300,
"Al":  -6.0800,
"Si":  -5.0200,
"P ":  -7.1200,
"S ":  -5.4100,
"Cl":  -7.0300,
"Ar":  -6.1300,
"K ":  -7.5000,
"Ca":  -6.1900,
"Sc":  -9.3800,
"Ti":  -7.5800,
"V ":  -8.6000,
"Cr":  -6.8900,
"Mn":  -7.1000,
"Fe":  -5.0300,
"Co":  -7.5400,
"Ni":  -6.3100,
"Cu":  -8.3400,
"Zn":  -7.9700,
}
