{
"H ":   0.0000,
"He":  -1.0776,
"Li":  -12.010,
"B ":  -11.680,
"Be":  -10.360,
"C ":  -4.6300,
"N ":  -5.2300,
"O ":  -4.3700,
"F ":  -8.5000,
"Ne":  -5.1300,
"Na":  -6.8200,
"Mg":  -5.4600,
"Al":  -6.6100,
"Si":  -5.5500,
"P ":  -7.6500,
"S ":  -5.9400,
"Cl":  -7.5600,
"Ar":  -6.6600,
"K ":  -8.0300,
"Ca":  -6.7200,
"Sc":  -9.9100,
"Ti":  -8.1100,
"V ":  -9.1300,
"Cr":  -7.4200,
"Mn":  -7.6300,
"Fe":  -5.5600,
"Co":  -8.0700,
"Ni":  -6.8400,
"Cu":  -8.8700,
"Zn":  -8.5000,
}
