{
"H ":   0.0000,
"He":  -1.0700,
"Li":  -10.950,
"B ":  -10.620,
"Be":  -9.3000,
"C ":  -3.5700,
"N ":  -4.1700,
"O ":  -3.3100,
"F ":  -7.4400,
"Ne":  -4.0700,
"Na":  -5.7600,
"Mg":  -4.4000,
"Al":  -5.5500,
"Si":  -4.4900,
"P ":  -6.5900,
"S ":  -4.8800,
"Cl":  -6.5000,
"Ar":  -5.6000,
"K ":  -6.9700,
"Ca":  -5.6600,
"Sc":  -8.8500,
"Ti":  -7.0500,
"V ":  -8.0700,
"Cr":  -6.3600,
"Mn":  -6.5700,
"Fe":  -4.5000,
"Co":  -7.0100,
"Ni":  -5.7800,
"Cu":  -7.8100,
"Zn":  -7.4400,
}
