{
"H ":   0.0000,
"He":  -1.0661,
"Li":  -10.780,
"B ":  -10.450,
"Be":  -9.1300,
"C ":  -3.4000,
"N ":  -4.0000,
"O ":  -3.1400,
"F ":  -7.2700,
"Ne":  -3.9000,
"Na":  -5.5900,
"Mg":  -4.2300,
"Al":  -5.3800,
"Si":  -4.3200,
"P ":  -6.4200,
"S ":  -4.7100,
"Cl":  -6.3300,
"Ar":  -5.4300,
"K ":  -6.8000,
"Ca":  -5.4900,
"Sc":  -8.6800,
"Ti":  -6.8800,
"V ":  -7.9000,
"Cr":  -6.1900,
"Mn":  -6.4000,
"Fe":  -4.3300,
"Co":  -6.8400,
"Ni":  -5.6100,
"Cu":  -7.6400,
"Zn":  -7.2700,
}
