{
"H ":   0.0000,
"He":  -1.0777,
"Li":  -12.080,
"B ":  -11.750,
"Be":  -10.430,
"C ":  -4.7000,
"N ":  -5.3000,
"O ":  -4.4400,
"F ":  -8.5700,
"Ne":  -5.2000,
"Na":  -6.8900,
"Mg":  -5.5300,
"Al":  -6.6800,
"Si":  -5.6200,
"P ":  -7.7200,
"S ":  -6.0100,
"Cl":  -7.6300,
"Ar":  -6.7300,
"K ":  -8.1000,
"Ca":  -6.7900,
"Sc":  -9.9800,
"Ti":  -8.1800,
"V ":  -9.2000,
"Cr":  -7.4900,
"Mn":  -7.7000,
"Fe":  -5.6300,
"Co":  -8.1400,
"Ni":  -6.9100,
"Cu":  -8.9400,
"Zn":  -8.5700,
}
