{
"H ":   0.0000,
"He":  -1.0734,
"Li":  -11.180,
"B ":  -10.850,
"Be":  -9.5300,
"C ":  -3.8000,
"N ":  -4.5806,
"O ":  -3.5400,
"F ":  -7.6700,
"Ne":  -4.3000,
"Na":  -5.9900,
"Mg":  -4.6300,
"Al":  -5.7800,
"Si":  -4.7200,
"P ":  -6.8200,
"S ":  -5.1100,
"Cl":  -6.7300,
"Ar":  -5.8300,
"K ":  -7.2000,
"Ca":  -5.8900,
"Sc":  -9.0800,
"Ti":  -7.2800,
"V ":  -8.3000,
"Cr":  -6.5900,
"Mn":  -6.8000,
"Fe":  -4.7300,
"Co":  -7.2400,
"Ni":  -6.0100,
"Cu":  -8.0400,
"Zn":  -7.6700,
}
