{
"H ":   0.0000,
"He":  -1.0261,
"Li":  -8.7220,
"B ":  -10.680,
"Be":  -9.1930,
"C ":  -3.8112,
"N ":  -4.4357,
"O ":  -3.3650,
"F ":  -7.6850,
"Ne":  -4.0350,
"Na":  -5.9900,
"Mg":  -4.5900,
"Al":  -5.7200,
"Si":  -4.6500,
"P ":  -6.8400,
"S ":  -5.0300,
"Cl":  -6.8750,
"Ar":  -5.7250,
"K ":  -7.1100,
"Ca":  -5.8425,
"Sc":  -9.0275,
"Ti":  -7.2325,
"V ":  -8.3600,
"Cr":  -6.6300,
"Mn":  -6.8300,
"Fe":  -4.7300,
"Co":  -7.3200,
"Ni":  -6.0500,
"Cu":  -8.0700,
"Zn":  -7.6400,
}
