{
"H ":   0.0000,
"He":  -0.9807,
"Li":  -8.5520,
"B ":  -10.510,
"Be":  -9.0230,
"C ":  -3.4070,
"N ":  -4.0400,
"O ":  -3.0700,
"F ":  -7.3900,
"Ne":  -3.7400,
"Na":  -5.6200,
"Mg":  -4.2700,
"Al":  -5.4000,
"Si":  -4.3300,
"P ":  -6.4200,
"S ":  -4.7100,
"Cl":  -6.5800,
"Ar":  -5.4300,
"K ":  -6.7900,
"Ca":  -5.5100,
"Sc":  -8.6700,
"Ti":  -6.9000,
"V ":  -7.9400,
"Cr":  -6.2100,
"Mn":  -6.4100,
"Fe":  -4.3100,
"Co":  -6.9000,
"Ni":  -5.6300,
"Cu":  -7.6500,
"Zn":  -7.2700,
}
