{
"H ":   0.0000,
"He":  -0.9015,
"Li":  -8.2520,
"B ":  -10.210,
"Be":  -8.7230,
"C ":  -3.1070,
"N ":  -3.3224,
"O ":  -2.7700,
"F ":  -7.0900,
"Ne":  -3.4400,
"Na":  -5.3200,
"Mg":  -3.9700,
"Al":  -5.1000,
"Si":  -4.0300,
"P ":  -6.1200,
"S ":  -4.4100,
"Cl":  -6.2800,
"Ar":  -5.1300,
"K ":  -6.4900,
"Ca":  -5.2100,
"Sc":  -8.3700,
"Ti":  -6.6000,
"V ":  -7.6400,
"Cr":  -5.9100,
"Mn":  -6.1100,
"Fe":  -4.0100,
"Co":  -6.6000,
"Ni":  -5.3300,
"Cu":  -7.3500,
"Zn":  -6.9700,
}
